%YAML 1.1
%TAG !u! tag:unity3d.com,2011:
--- !u!78 &1
TagManager:
  serializedVersion: 2
  tags:
  - Exit
  - Fruit
  - Soda
  layers:
  - Default
  - TransparentFX
  - Ignore Raycast
  - 
  - Water
  - UI
  - 
  - 
  - Collision Layer
  - 
  - 
  - 
  - 
  - 
  - 
  - 
  - 
  - 
  - 
  - 
  - 
  - 
  - 
  - 
  - 
  - 
  - 
  - 
  - 
  - 
  - 
  - 
  m_SortingLayers:
  - name: Default
    uniqueID: 0
    locked: 0
  - name: Floor
    uniqueID: 1945057951
    locked: 0
  - name: Obstacles
    uniqueID: 1437498029
    locked: 0
  - name: Food
    uniqueID: 3205712967
    locked: 0
  - name: Characters
    uniqueID: 1310060771
    locked: 0
